…
The next command sent is to create a new dataframe, called
‘carrier\_delays’ that is derived from the ‘nycflights13:flights’ data
set. This data will then be grouped by whether theflights were at least
60 minutes late and by carrier. The results of the grouping will be
summarised in a column titled ‘delayed.flight.per.carrier’.

``` r
carrier_delays <- flights %>%
  group_by(dep_delay >= 60, carrier) %>%
  summarise(delayed.flights.per.carrier = n(), .groups='keep')

print(carrier_delays)
```

    ## # A tibble: 47 x 3
    ## # Groups:   dep_delay >= 60, carrier [47]
    ##    `dep_delay >= 60` carrier delayed.flights.per.carrier
    ##    <lgl>             <chr>                         <int>
    ##  1 FALSE             9E                            15425
    ##  2 FALSE             AA                            30059
    ##  3 FALSE             AS                              673
    ##  4 FALSE             B6                            49514
    ##  5 FALSE             DL                            45062
    ##  6 FALSE             EV                            44372
    ##  7 FALSE             F9                              607
    ##  8 FALSE             FL                             2864
    ##  9 FALSE             HA                              331
    ## 10 FALSE             MQ                            23126
    ## # ... with 37 more rows
…
Next, we generate a dataframe labeled ‘early\_bird\_flights’ from the
‘nycflights13::flights’ data. The data taken is immediately grouped by
scheduled departure time, ‘dep\_time’, being less than 801, or 8:01 AM,
as well as by ‘carrier’. Data acquired is kept in a new column termed,
‘early.bird.flights.per.carrier’.

``` r
early_bird_flights <- flights %>%
  group_by(dep_time < 801, carrier) %>%
  summarise(early.bird.flights.per.carrier = n(), .groups='keep')

print(early_bird_flights)
```

    ## # A tibble: 46 x 3
    ## # Groups:   dep_time < 801, carrier [46]
    ##    `dep_time < 801` carrier early.bird.flights.per.carrier
    ##    <lgl>            <chr>                            <int>
    ##  1 FALSE            9E                               16282
    ##  2 FALSE            AA                               25779
    ##  3 FALSE            AS                                 369
    ##  4 FALSE            B6                               44187
    ##  5 FALSE            DL                               40806
    ##  6 FALSE            EV                               44083
    ##  7 FALSE            F9                                 680
    ##  8 FALSE            FL                                2795
    ##  9 FALSE            HA                                 341
    ## 10 FALSE            MQ                               22835
    ## # ... with 36 more rows
…
